…
  data <- html_table(html_nodes(webpage,"table")[1])[[1]]
  names(data) <- c("school","conference",1:ncol(data))
  data <- data %>%
    mutate(year = year)
  
  return(data)
  
}

ap_poll_2012_2022_tbl <- lapply(2012:2022, get_ap_polls) %>% bind_rows()

ap_poll_2012_2022_tbl
```

    ## # A tibble: 544 × 23
    ##    school    confe…¹ `1`   `2`   `3`   `4`   `5`   `6`   `7`   `8`   `9`   `10` 
    ##    <chr>     <chr>   <chr> <chr> <chr> <chr> <chr> <chr> <chr> <chr> <chr> <chr>
    ##  1 ""        ""      "1"   "2"   "3"   "4"   "5"   "6"   "7"   "8"   "9"   "10" 
    ##  2 "School"  "Conf"  "Pre" "11/… "11/… "11/… "12/… "12/… "12/… "12/… "1/2" "1/9"
    ##  3 "Alabama" "SEC"   "19"  "16"  "13"  "12"  "16"  "23"  ""    ""    ""    ""   
    ##  4 "Arizona" "Pac-1… "16"  "15"  "23"  ""    ""    ""    ""    ""    ""    ""   
    ##  5 "Baylor"  "Big 1… "12"  "11"  "9"   "7"   "6"   "6"   "6"   "6"   "4"   "4"  
    ##  6 "Califor… "Pac-1… "24"  "23"  "20"  "24"  ""    ""    ""    ""    ""    ""   
    ##  7 "Cincinn… "Big E… "21"  "20"  ""    ""    ""    ""    ""    ""    ""    ""   
    ##  8 "Creight… "MVC"   ""    ""    ""    ""    "19"  "25"  "23"  "21"  ""    "23" 
    ##  9 "Duke"    "ACC"   "6"   "6"   "6"   "3"   "7"   "7"   "7"   "7"   "5"   "8"  
    ## 10 "Florida" "SEC"   "8"   "7"   "10"  "10"  "12"  "13"  "11"  "10"  "13"  "19" 
    ## # … with 534 more rows, 11 more variables: `11` <chr>, `12` <chr>, `13` <chr>,
    ## #   `14` <chr>, `15` <chr>, `16` <chr>, `17` <chr>, `18` <chr>, `19` <chr>,
    ## #   year <int>, `20` <chr>, and abbreviated variable name ¹​conference
…
